{
	"name": "Grounded Guide",
	"type": "unit",
	"class": "thespian",
	"spec": "finesse",
	"tech": 2,
	"cost": 5,
	"attack": 4,
	"health": 4,
	"effectText": "Your other units get +1 ATK.\nYour Virtuosos get +2/+1, instead."
}
