{
	"name": "River Montoya",
	"type": "hero",
	"class": "dancing-fencer",
	"spec": "finesse",
	"color": "neutral",
	"levels": {
		"1-2": { "attack": 2, "health": 3 },
		"3-4": {
			"attack": 2,
			"health": 4,
			"effects": ["exhaust | target"],
			"effectText": "exhaust -> Sideline a tech 0 or tech 1 patroller"
		},
		"5": {
			"attack": 3,
			"health": 4,
			"effectText": "Your tech 0 units cost 1 less to play."
		}
	}
}
