{
	"name": "Two Step",
	"type": "spell",
	"class": "buff",
	"spec": "finesse",
	"cost": 2,
	"effects": ["channeling"],
	"effectText": "Two of your units become dance partners if they aren't partnered already. While you control both, they each get +2/+2. If you lose one, sacrifice Two Step"
}
