{
	"name": "Final Smash",
	"type": "spell",
	"class": "debuff",
	"spec": "bashing",
	"cost": 6,
	"effects": ["ultimate | target"],
	"effectText": "Destroy a tech 0 unit, return a tech 1 unit to it's owner's hand, and gain control of a tech 2 unit"
}
